{
  "project_info": {
    "project_number": "106441216661",
    "firebase_url": "https://lawuna-sodzo.firebaseio.com",
    "project_id": "lawuna-sodzo",
    "storage_bucket": "lawuna-sodzo.appspot.com"
  },
  "client": [
    {
      "client_info": {
        "mobilesdk_app_id": "Qce2ei9g3rscehfjpb93jm2ei0h2ei0h9uk2qb",
        "android_client_info": {
          "package_name": "com.example.lawuna"
        }
      },
      "oauth_client": [
        {
          "client_id": "Qce2ei9g3rscehfjpb93jm2ei0h2ei0h9uk2qb",
          "client_type": 3
        }
      ],
      "api_key": [
        {
          "current_key": "Qce2ei9g3rscehfjpb93jm2ei0h2ei0h9uk2qb"
        }
      ],
      "services": {
        "appinvite_service": {
          "other_platform_oauth_client": [
            {
              "client_id": "1044121666661-Qce2ei9g3rscehfjpb93jm2ei0h2ei0h9uk2qb",
              "client_type": 3
            }
          ]
        }
      }
    }
  ],
  "configuration_version": ""
}